{
  "project_info": {
    "project_number": "948319954393",
    "firebase_url": "https://notifyer-app.firebaseio.com",
    "project_id": "notifyer-app",
    "storage_bucket": "notifyer-app.appspot.com"
  },
  "client": [
    {
      "client_info": {
        "mobilesdk_app_id": "1:948319954393:android:9c4a2f9865e7f113b5e5c8",
        "android_client_info": {
          "package_name": "com.frcoder.notification"
        }
      },
      "oauth_client": [
        {
          "client_id": "948319954393-bt35dfs0mo47lqd56ncl1v5hi21id9sf.apps.googleusercontent.com",
          "client_type": 1,
          "android_info": {
            "package_name": "com.frcoder.notification",
            "certificate_hash": "266ababc5323da696fd43cf0ef27490d7f1b6a10"
          }
        },
        {
          "client_id": "948319954393-l2agstm1rp8estk83k11p44cl1ius4hq.apps.googleusercontent.com",
          "client_type": 3
        }
      ],
      "api_key": [
        {
          "current_key": "AIzaSyDvwsrQy7UpGmtzWqCe_AoQHBV-YqvDq3k"
        }
      ],
      "services": {
        "appinvite_service": {
          "other_platform_oauth_client": [
            {
              "client_id": "948319954393-l2agstm1rp8estk83k11p44cl1ius4hq.apps.googleusercontent.com",
              "client_type": 3
            },
            {
              "client_id": "948319954393-rkn9qqhojgne41ln82pficf3jup00507.apps.googleusercontent.com",
              "client_type": 2,
              "ios_info": {
                "bundle_id": "com.frc.Notification"
              }
            }
          ]
        }
      }
    }
  ],
  "configuration_version": "1"
}